digraph {

subgraph cluster_goldpinger {   // perrepo
    label="Goldpinger";         // perrepo
    color=grey;                 // perrepo

    goldpinger [color=goldenrod, style=filled, label="Goldpinger"]
}   // perrepo

    goldpinger -> apiserver [label="discover its peers"]
    prometheus -> goldpinger [label="collects datapoints from"]
}
